{
  "name": "Literal",
  "base": "BaseEntity",
  "plural": "Literals",
  "description": "This model stores the literal translations",
  "properties": {
    "key": {
      "type": "string",
      "max": 80,
      "unique": {
        "scopedTo": ["locale"]
      }
    },
    "value": {
      "type": "string",
      "max": 250
    },
    "locale": {
      "type": "string",
      "max": 80,
      "required": true,
      "default": "*"
    },
    "placeholders": {
      "type": "Object"
    }
  },
  "validations": [],
  "relations": {},
  "acls": [],
  "methods": [],
  "unique": [
    "key", "locale"
  ]
}